<?xml version="1.0" encoding="utf-8"?>
<!-- Generator: Adobe Illustrator 24.3.0, SVG Export Plug-In . SVG Version: 6.00 Build 0)  -->
<svg version="1.1" id="Layer_1" xmlns="http://www.w3.org/2000/svg" xmlns:xlink="http://www.w3.org/1999/xlink" x="0px" y="0px"
	 viewBox="0 0 896 846" style="enable-background:new 0 0 896 846;" xml:space="preserve">
<style type="text/css">
	.st0{fill:#333333;}
	.st1{fill:#FFFFFF;}
	.st2{fill:#1A1A1A;}
	.st3{fill:#00305B;}
	.st4{fill:#F9F9F9;}
</style>
<path class="st0" d="M294.6,75.1c7.7-2.2,14.8-4.2,21.8-6.2c3.1,2.7,2.8,5-0.6,7.1c1.7,3.2,3.4,5.4,7.3,4.9c2.4-0.3,4.3,0.4,3.4,3.7
	c-0.4,1.5-0.1,3.1-0.1,4.7c1.1,0,2.7,0.4,3.2-0.2c1.1-1.1,1.6-2.8,2.9-5.2c1.1,0.8,2.6,2.6,4.3,2.8c5.2,0.7,8.6,2.1,5.2,8.1
	c1.4,0.6,3.5,2.1,4.2,1.6c4.4-3.1,5.1-0.5,5.4,3.1c0.1,0.8,0.1,1.7,0.3,2.5c1,4.1,3.2,4.7,6.3,1.8c5.9-5.4,5.9-5.4,14.4,0
	c-2.4,1-4.2,1.6-5.9,2.4c-1.1,0.5-2.7,1.1-2.9,1.9c-0.3,1.3-0.2,3.3,0.6,4.2c2.1,2.1,4.7,3.8,7.1,5.6c0.7,0.5,1.6,0.9,1.9,1.5
	c2.1,4.6,3.7,4.4,6.1,0c0.8-1.5,3.9-2.5,5.7-2.2c1.2,0.2,2.7,3.3,2.5,4.9c-0.2,1.3-2.6,2.9-4.3,3.3c-3.5,0.7-5.6,4.4-3.4,7.7
	c1.5,2.2,4,3.6,6,5.5c0.9,0.9,2.4,2,2.3,2.9c-0.9,8.6,1.5,11.4,9.3,11c5.4,7.5,10.4,14.7,15.7,21.6c1.1,1.5,3.7,2.8,5.5,2.6
	c4.1-0.4,6,1.3,7.7,4.7c2.6,5.4,2.8,5.4,8.2,3.2c1.5,2,3,4,4,5.2c5-0.3,9.3-0.5,12.1-0.6c1.8,4.2,3.5,6.9,4.2,9.9
	c0.6,2.4,0.1,5,0.1,6.3c2.9,1.7,5.1,3.4,7.6,4.3c3.4,1.2,7,2.4,10.5,2.5c5.6,0.2,11.1,3.7,16.7,0.5c1.7-0.9,3.3-2,5.1-2.7
	c3.3-1.3,6.7-2.3,9.5-3.2c0.7,6,1.1,11.1,2.2,16.2c0.2,1.1,2.7,1.7,4.2,2.4c0.3,0.1,0.9-0.4,1.4-0.5c7.9-2.6,10.1-1.5,12.7,6.2
	c0.5,1.5,1,3,1.5,4.5c8.2-1.8,8.2-1.8,13.3,5.6c3.8,5.5,6,6.1,12,3.6c1.9-0.8,4.2-0.7,6.3-1.1c0.1,2.4,1.1,5.3,0.1,7.1
	c-2.3,4.5-0.2,5.6,3.6,6.1c0.4,2.1,0.8,4,1.3,6.4c-1.4,0.3-2.6,0.7-3.9,0.9c-1.1,0.2-2.8-0.1-3.3,0.5c-4.1,5.4-9.9,8.1-17,9.9
	c-0.7-0.6-2.2-1.8-3.8-3.1c-2.5,1.2-4.8,2.4-6.5,3.2c0.7,5.7,1.4,11,2,15.8c3.3,1.2,6.6,2.4,10,3.6c0.8,0.3,1.6,0.6,2.4,0.5
	c7.1-1.2,12.2,1.7,16.6,7.1c1.9,2.3,5.2,3.6,8,4.9c3.9,1.9,7.9,3.3,11.8,5.1c0.7,0.3,1.4,1.4,1.5,2.2c0.5,4.2-4.4,12-8.6,13.7
	c-7.5,3-8.5,4.7-5.9,11.8c3.6-4.7,8-2,12.3-2c8.8,0.1,18.3,2.9,25.8-5.2c0.7-0.8,4.9,0.7,6.6,2.1c0.9,0.7,0.5,3.9-0.3,5.5
	c-0.9,1.9-2.8,3.3-4.3,4.9c2.2,1.3,4.4,2.6,6.7,3.8c0.5,0.3,1.2,0.4,2.5,0.7c0,3.6-0.1,7.1,0,10.7c0.1,2.6,1.3,4,4.2,3.1
	c1.2-0.4,2.4-0.6,4.7-1.1c-2.2,5.2-5.8,5.7-8.9,4.1c-5.1-2.6-7.4,0.1-9.6,3.7c-1.9,3.1-3.6,6.4-5.1,9.6c-1.5,3.2,0.6,6,5.2,7.4
	c9.3,2.9,18.5,6,28.3,9.1c-3.4,6.3,1.1,6.8,3.9,8.2c3.7,1.8,4.6,4.5,3.2,8.2c-1.9,5.4-5.7,10.4-3.3,16.8c1.2,3.1-0.7,5.1-4.1,5.2
	c-2,0.1-3.9,0-6.4,0c0.1,1-0.3,2.5,0.3,3c4.1,3.8,3.1,8.5,2.7,13.1c-0.3,3.8-0.6,7.7-1.3,11.4c-0.8,4.3-1.3,8,1.8,12.1
	c3.5,4.6-0.3,9.9-1,15.2c0.9,0,1.8-0.2,2.6,0c1.6,0.5,4,0.8,4.6,1.9c2.5,5.1,5,9.8,12,8.1c0.3-0.1,0.7,0.1,1,0.3
	c3,1.4,5.9,4.1,9.2,0.2c2.2-2.5,4.8-4.6,7.5-6.5c5.1-3.6,10.9-6.3,15.5-10.4c5.4-4.8,10.5-3.5,14.5-2.2c1.9,4.7,3.4,8.1,4.8,11.6
	c0.5,1.2,1.5,2.5,1.3,3.7c-0.6,4.2,1.5,5.7,5.5,5.6c-1.4,6.2-2.6,12-3.9,17.7c-2.4,0.7-4.9,1.6-7.5,2c-4.3,0.7-3.8,2.9-2,5.5
	c0.6,1,1.4,2,2.3,2.6c5.6,3.8,5.2,10.6,7.7,16c0.4,0.8-0.5,2.4-1.1,3.4c-2.4,4-4.9,8-7.3,12c-0.3,0.5-0.4,1.3-0.2,1.9
	c1.4,3.6,2.9,7.2,4.3,10.9c0.2,0.6,0.5,1.4,0.3,1.9c-3.2,8.2-6.5,16.5-9.8,24.7c-0.8,2.1-1.7,4.2-2.2,5.5c4.2,2.2,7.9,4,11.5,5.9
	c3.3,1.8,6,3,9-1c2.4-3.3,4.4-2.7,8,1.3c1.1-1.3,2.2-2.5,4.3-5c0.2,6.8-2.8,14.3,6.6,15c1.7,5.6-0.8,9.6-5.6,12.2
	c-2.3,1.3-3.9,5.1-4.3,8c-0.6,5-1.5,9.1-5.2,13.3c-3,3.5-3.4,9.4-4.9,14.2c-1,3.3-1.9,6.7-3.1,11.1c2.5,2.5,0.2,5.5-2.2,8.8
	c-2.9,4.1-5.4,8.5-8.3,12.7c-0.7,1.1-2.1,2-3.3,2.4c-4.8,1.5-5.5,3.7-2.7,7.9c2.3,3.4,4.3,7.1,6.9,11.4c2.6,3.1,6.1,6.9,9.2,11.1
	c0.8,1.1,0.7,3.6-0.1,4.8c-3.9,6.4-8.2,12.5-12.4,18.8c1.2,3.2,2.3,7.9,4.5,11.9c2.4,4.2,5.9,7.8,8.7,11.7c3.7,5.1,3.8,9.3,0.3,13.5
	c-1.7,2.1-3.5,4.3-6.5,1.4c-0.6-0.6-2-0.3-3.6-0.4c0.5,1.7,0.6,2.9,1.1,3.8c2,3.3,3.3,6.2-1.4,8.5c-0.8,0.4-0.9,2.1-1.5,3
	c-1.7,2.4-3.5,4.7-5.5,7.5c0.8,2.3,1.9,5.6,3.6,10.6c-7.7-5.8-9.7,1.4-14.4,3.7c-7-8.2-17.7-12-24-21.7
	c-4.6-7.2-11.3-12.9-16.7-19.6c-2.3-2.8-3.4-6.6-5.3-9.8c-1-1.7-1.9-3.8-3.4-4.7c-10.9-6.5-16.6-17.4-23.7-27.1
	c-5.2-7.2-10.4-14.2-19.4-17c-1.2-0.4-2.8-1.3-3.1-2.3c-0.6-2-1.2-5-0.2-6.1c1.5-1.7,4-1.2,5,1.6c0.2,0.6,0.8,1,1.3,1.6
	c0.1-6.2,2.2-7.9,7.9-8.6c2-0.2,3.6-3.2,5.3-4.9c-0.5-0.6-0.9-1.1-1.4-1.7c-1.9,1.4-3.8,2.8-6.2,4.5c-0.9-1.6-1.8-3.2-3-5.4
	c-0.5,2.3-0.9,4-1.3,5.9c-0.7-0.2-1.5-0.4-2.2-0.5c-0.8,3.7-4.6,3.5-5.9,2.3c-2.2-2-3.2-5.3-4.5-8.2c-2.3-5.2-4.5-10.4-6.8-15.7
	c-0.7-1.7-1.4-3.5-1.3-5.7c0.8,0.6,1.5,1.2,3.4,2.7c-0.5-3.4-0.8-5.7-1-7.2c-1.7-0.6-3.9-0.7-4.5-1.8c-1.1-1.9-1.4-4.3-2-6.5
	c-0.4-1.4-0.3-3.8-1.1-4.1c-8.9-3.4-8.2-12.6-11.9-19.1c-3.2-5.7-5.9-11.7-8.7-17.7c-0.6-1.3-0.9-2.8-1.1-4.3
	c-2.4-19.6-4.4-39.3-7.1-58.9c-1.4-10-3.5-20-6.6-29.5c-3.9-11.8-9.2-23.2-13.8-34.8c-0.4-1.1-1-2.1-1.3-3.2
	c-1.8-7.2-3.3-14.5-5.2-21.6c-0.5-2-1.9-3.8-2.8-5.8c-3.3-7.6-6.6-15.2-9.6-22.9c-0.7-1.8,0.2-4.1,0.4-6.7c-2.8,4-4,1.7-5.1-0.7
	c-4-8.3-7.4-17.1-12.3-24.9c-4.9-7.9-7.4-16.5-9.5-25.3c-3.1-13.2-6.3-26.4-9.9-39.5c-1.2-4.4-4-8.4-5.8-12.7
	c-2.7-6.9-4.7-14.2-7.8-20.9c-4.1-8.8-8.9-17.3-13.5-25.8c-0.5-0.9-1.7-1.8-2.8-2c-5.8-1.3-8.2-5.7-9.9-10.7
	c-2-5.6-3.9-11.2-5.9-16.8c-0.5-1.4-1.3-2.7-2.1-4c-2.2-3.9-4.3-7.8-6.6-11.5c-1.4-2.2-3.1-4.1-4.9-6c-2.5-2.7-4.9-5.4-7.6-7.8
	c-4.9-4.4-10.1-8.3-14.9-12.8c-2.7-2.6-4.8-5.8-7.1-8.9c-3.6-4.8-7.1-9.6-10.8-14.3c-1.6-2-3.3-4.2-6.7-2.9c-0.8,0.3-3-0.9-3.5-1.9
	c-2.8-5.4-5.7-10.9-7.8-16.6c-6.4-17.1-12.6-34-22-49.9c-6.5-10.9-10.5-23.4-15.6-35.1c-1.6-3.6-3.2-7.3-4.9-10.9
	C298.4,83.4,296.6,79.5,294.6,75.1z"/>
<path class="st1" d="M296,70.2c7.7-2.2,14.8-4.2,21.8-6.2c3.1,2.7,2.8,5-0.6,7.1c1.7,3.2,3.4,5.4,7.3,4.9c2.4-0.3,4.3,0.4,3.4,3.7
	c-0.4,1.5-0.1,3.1-0.1,4.7c1.1,0,2.7,0.4,3.2-0.2c1.1-1.1,1.6-2.8,2.9-5.2c1.1,0.8,2.6,2.6,4.3,2.8c5.2,0.7,8.6,2.1,5.2,8.1
	c1.4,0.6,3.5,2.1,4.2,1.6c4.4-3.1,5.1-0.5,5.4,3.1c0.1,0.8,0.1,1.7,0.3,2.5c1,4.1,3.2,4.7,6.3,1.8c5.9-5.4,5.9-5.4,14.4,0
	c-2.4,1-4.2,1.6-5.9,2.4c-1.1,0.5-2.7,1.1-2.9,1.9c-0.3,1.3-0.2,3.3,0.6,4.2c2.1,2.1,4.7,3.8,7.1,5.6c0.7,0.5,1.6,0.9,1.9,1.5
	c2.1,4.6,3.7,4.4,6.1,0c0.8-1.5,3.9-2.5,5.7-2.2c1.2,0.2,2.7,3.3,2.5,4.9c-0.2,1.3-2.6,2.9-4.3,3.3c-3.5,0.7-5.6,4.4-3.4,7.7
	c1.5,2.2,4,3.6,6,5.5c0.9,0.9,2.4,2,2.3,2.9c-0.9,8.6,1.5,11.4,9.3,11c5.4,7.5,10.4,14.7,15.7,21.6c1.1,1.5,3.7,2.8,5.5,2.6
	c4.1-0.4,6,1.3,7.7,4.7c2.6,5.4,2.8,5.4,8.2,3.2c1.5,2,3,4,4,5.2c5-0.3,9.3-0.5,12.1-0.6c1.8,4.2,3.5,6.9,4.2,9.9
	c0.6,2.4,0.1,5,0.1,6.3c2.9,1.7,5.1,3.4,7.6,4.3c3.4,1.2,7,2.4,10.5,2.5c5.6,0.2,11.1,3.7,16.7,0.5c1.7-0.9,3.3-2,5.1-2.7
	c3.3-1.3,6.7-2.3,9.5-3.2c0.7,6,1.1,11.1,2.2,16.2c0.2,1.1,2.7,1.7,4.2,2.4c0.3,0.1,0.9-0.4,1.4-0.5c7.9-2.6,10.1-1.5,12.7,6.2
	c0.5,1.5,1,3,1.5,4.5c8.2-1.8,8.2-1.8,13.3,5.6c3.8,5.5,6,6.1,12,3.6c1.9-0.8,4.2-0.7,6.3-1.1c0.1,2.4,1.1,5.3,0.1,7.1
	c-2.3,4.5-0.2,5.6,3.6,6.1c0.4,2.1,0.8,4,1.3,6.4c-1.4,0.3-2.6,0.7-3.9,0.9c-1.1,0.2-2.8-0.1-3.3,0.5c-4.1,5.4-9.9,8.1-17,9.9
	c-0.7-0.6-2.2-1.8-3.8-3.1c-2.5,1.2-4.8,2.4-6.5,3.2c0.7,5.7,1.4,11,2,15.8c3.3,1.2,6.6,2.4,10,3.6c0.8,0.3,1.6,0.6,2.4,0.5
	c7.1-1.2,12.2,1.7,16.6,7.1c1.9,2.3,5.2,3.6,8,4.9c3.9,1.9,7.9,3.3,11.8,5.1c0.7,0.3,1.4,1.4,1.5,2.2c0.5,4.2-4.4,12-8.6,13.7
	c-7.5,3-8.5,4.7-5.9,11.8c3.6-4.7,8-2,12.3-2c8.8,0.1,18.3,2.9,25.8-5.2c0.7-0.8,4.9,0.7,6.6,2.1c0.9,0.7,0.5,3.9-0.3,5.5
	c-0.9,1.9-2.8,3.3-4.3,4.9c2.2,1.3,4.4,2.6,6.7,3.8c0.5,0.3,1.2,0.4,2.5,0.7c0,3.6-0.1,7.1,0,10.7c0.1,2.6,1.3,4,4.2,3.1
	c1.2-0.4,2.4-0.6,4.7-1.1c-2.2,5.2-5.8,5.7-8.9,4.1c-5.1-2.6-7.4,0.1-9.6,3.7c-1.9,3.1-3.6,6.4-5.1,9.6c-1.5,3.2,0.6,6,5.2,7.4
	c9.3,2.9,18.5,6,28.3,9.1c-3.4,6.3,1.1,6.8,3.9,8.2c3.7,1.8,4.6,4.5,3.2,8.2c-1.9,5.4-5.7,10.4-3.3,16.8c1.2,3.1-0.7,5.1-4.1,5.2
	c-2,0.1-3.9,0-6.4,0c0.1,1-0.3,2.5,0.3,3c4.1,3.8,3.1,8.5,2.7,13.1c-0.3,3.8-0.6,7.7-1.3,11.4c-0.8,4.3-1.3,8,1.8,12.1
	c3.5,4.6-0.3,9.9-1,15.2c0.9,0,1.8-0.2,2.6,0c1.6,0.5,4,0.8,4.6,1.9c2.5,5.1,5,9.8,12,8.1c0.3-0.1,0.7,0.1,1,0.3
	c3,1.4,5.9,4.1,9.2,0.2c2.2-2.5,4.8-4.6,7.5-6.5c5.1-3.6,10.9-6.3,15.5-10.4c5.4-4.8,10.5-3.5,14.5-2.2c1.9,4.7,3.4,8.1,4.8,11.6
	c0.5,1.2,1.5,2.5,1.3,3.7c-0.6,4.2,1.5,5.7,5.5,5.6c-1.4,6.2-2.6,12-3.9,17.7c-2.4,0.7-4.9,1.6-7.5,2c-4.3,0.7-3.8,2.9-2,5.5
	c0.6,1,1.4,2,2.3,2.6c5.6,3.8,5.2,10.6,7.7,16c0.4,0.8-0.5,2.4-1.1,3.4c-2.4,4-4.9,8-7.3,12c-0.3,0.5-0.4,1.3-0.2,1.9
	c1.4,3.6,2.9,7.2,4.3,10.9c0.2,0.6,0.5,1.4,0.3,1.9c-3.2,8.2-6.5,16.5-9.8,24.7c-0.8,2.1-1.7,4.2-2.2,5.5c4.2,2.2,7.9,4,11.5,5.9
	c3.3,1.8,6,3,9-1c2.4-3.3,4.4-2.7,8,1.3c1.1-1.3,2.2-2.5,4.3-5c0.2,6.8-2.8,14.3,6.6,15c1.7,5.6-0.8,9.6-5.6,12.2
	c-2.3,1.3-3.9,5.1-4.3,8c-0.6,5-1.5,9.1-5.2,13.3c-3,3.5-3.4,9.4-4.9,14.2c-1,3.3-1.9,6.7-3.1,11.1c2.5,2.5,0.2,5.5-2.2,8.8
	c-2.9,4.1-5.4,8.5-8.3,12.7c-0.7,1.1-2.1,2-3.3,2.4c-4.8,1.5-5.5,3.7-2.7,7.9c2.3,3.4,4.3,7.1,6.9,11.4c2.6,3.1,6.1,6.9,9.2,11.1
	c0.8,1.1,0.7,3.6-0.1,4.8c-3.9,6.4-8.2,12.5-12.4,18.8c1.2,3.2,2.3,7.9,4.5,11.9c2.4,4.2,5.9,7.8,8.7,11.7c3.7,5.1,3.8,9.3,0.3,13.5
	c-1.7,2.1-3.5,4.3-6.5,1.4c-0.6-0.6-2-0.3-3.6-0.4c0.5,1.7,0.6,2.9,1.1,3.8c2,3.3,3.3,6.2-1.4,8.5c-0.8,0.4-0.9,2.1-1.5,3
	c-1.7,2.4-3.5,4.7-5.5,7.5c0.8,2.3,1.9,5.6,3.6,10.6c-7.7-5.8-9.7,1.4-14.4,3.7c-7-8.2-17.7-12-24-21.7
	c-4.6-7.2-11.3-12.9-16.7-19.6c-2.3-2.8-3.4-6.6-5.3-9.8c-1-1.7-1.9-3.8-3.4-4.7c-10.9-6.5-16.6-17.4-23.7-27.1
	c-5.2-7.2-10.4-14.2-19.4-17c-1.2-0.4-2.8-1.3-3.1-2.3c-0.6-2-1.2-5-0.2-6.1c1.5-1.7,4-1.2,5,1.6c0.2,0.6,0.8,1,1.3,1.6
	c0.1-6.2,2.2-7.9,7.9-8.6c2-0.2,3.6-3.2,5.3-4.9c-0.5-0.6-0.9-1.1-1.4-1.7c-1.9,1.4-3.8,2.8-6.2,4.5c-0.9-1.6-1.8-3.2-3-5.4
	c-0.5,2.3-0.9,4-1.3,5.9c-0.7-0.2-1.5-0.4-2.2-0.5c-0.8,3.7-4.6,3.5-5.9,2.3c-2.2-2-3.2-5.3-4.5-8.2c-2.3-5.2-4.5-10.4-6.8-15.7
	c-0.7-1.7-1.4-3.5-1.3-5.7c0.8,0.6,1.5,1.2,3.4,2.7c-0.5-3.4-0.8-5.7-1-7.2c-1.7-0.6-3.9-0.7-4.5-1.8c-1.1-1.9-1.4-4.3-2-6.5
	c-0.4-1.4-0.3-3.8-1.1-4.1c-8.9-3.4-8.2-12.6-11.9-19.1c-3.2-5.7-5.9-11.7-8.7-17.7c-0.6-1.3-0.9-2.8-1.1-4.3
	c-2.4-19.6-4.4-39.3-7.1-58.9c-1.4-10-3.5-20-6.6-29.5c-3.9-11.8-9.2-23.2-13.8-34.8c-0.4-1.1-1-2.1-1.3-3.2
	c-1.8-7.2-3.3-14.5-5.2-21.6c-0.5-2-1.9-3.8-2.8-5.8c-3.3-7.6-6.6-15.2-9.6-22.9c-0.7-1.8,0.2-4.1,0.4-6.7c-2.8,4-4,1.7-5.1-0.7
	c-4-8.3-7.4-17.1-12.3-24.9c-4.9-7.9-7.4-16.5-9.5-25.3c-3.1-13.2-6.3-26.4-9.9-39.5c-1.2-4.4-4-8.4-5.8-12.7
	c-2.7-6.9-4.7-14.2-7.8-20.9c-4.1-8.8-8.9-17.3-13.5-25.8c-0.5-0.9-1.7-1.8-2.8-2c-5.8-1.3-8.2-5.7-9.9-10.7
	c-2-5.6-3.9-11.2-5.9-16.8c-0.5-1.4-1.3-2.7-2.1-4c-2.2-3.9-4.3-7.8-6.6-11.5c-1.4-2.2-3.1-4.1-4.9-6c-2.5-2.7-4.9-5.4-7.6-7.8
	c-4.9-4.4-10.1-8.3-14.9-12.8c-2.7-2.6-4.8-5.8-7.1-8.9c-3.6-4.8-7.1-9.6-10.8-14.3c-1.6-2-3.3-4.2-6.7-2.9c-0.8,0.3-3-0.9-3.5-1.9
	c-2.8-5.4-5.7-10.9-7.8-16.6c-6.4-17.1-12.6-34-22-49.9c-6.5-10.9-10.5-23.4-15.6-35.1c-1.6-3.6-3.2-7.3-4.9-10.9
	C299.9,78.5,298.1,74.6,296,70.2z"/>
<path class="st2" d="M243.1,201.5c48.2,31.7,99.1,59.5,148.6,89c49.6,29.5,98.7,59.9,146.7,91.8c93.7,62.2,184.1,132.2,261.9,213.8
	c6.1,6.4,12.6,13.7,15.8,22.1c4.2,10.8-15,6-20.2,5c-33.1-6.4-63.4-20.4-92.6-36.8c-1.6-0.9-2.8,1.5-1.3,2.5
	c23,14.8,46.9,27.5,72.7,36.6c11.4,4,40.2,16.5,50.4,3.4c8.1-10.5-3.9-25.8-10.2-33.8c-14.3-18.3-32.4-34.7-49-50.8
	c-82.6-79.7-176.5-146.9-273.4-208c-40-25.2-80.7-49.5-121.6-73.3c-40.8-23.7-163.2-85.4-205.3-106.7
	C160.3,153.6,238.3,198.4,243.1,201.5z"/>
<path class="st1" d="M243.3,198.5c48.2,31.7,99.1,59.5,148.6,89c49.6,29.5,98.7,59.9,146.7,91.8c93.7,62.2,184.1,132.2,261.9,213.8
	c6.1,6.4,12.6,13.7,15.8,22.1c4.2,10.8-15,6-20.2,5c-33.1-6.4-63.4-20.4-92.6-36.8c-1.6-0.9-2.8,1.5-1.3,2.5
	c23,14.8,46.9,27.5,72.7,36.6c11.4,4,40.2,16.5,50.4,3.4c8.1-10.5-3.9-25.8-10.2-33.8c-14.3-18.3-32.4-34.7-49-50.8
	c-82.6-79.7-176.5-146.9-273.4-208c-40-25.2-80.7-49.5-121.6-73.3c-40.8-23.7-163.2-85.4-205.3-106.7
	C160.6,150.6,238.6,195.4,243.3,198.5z"/>
<path class="st3" d="M816.2,567.7c18.6,20.7,42.3,37.7,54.9,63.3c2.5,5.2,4.6,11.4,2.6,17c-2.8,7.9-14.1,8.5-21,8.9
	c-17.9,1.1-36-1.5-53.8-3.7c-1.6-0.2-2,2.2-0.4,2.5c18.1,3.3,91.1,22.9,81.7-17.7c-3.8-16.3-17.6-30.3-28.9-41.8
	c-10.6-10.8-22-20.4-33.2-30.5C817.1,564.7,815.2,566.5,816.2,567.7z"/>
<path class="st4" d="M816.2,564.7c18.6,20.7,42.3,37.7,54.9,63.3c2.5,5.2,4.6,11.4,2.6,17c-2.8,7.9-14.1,8.5-21,8.9
	c-17.9,1.1-36-1.5-53.8-3.7c-1.6-0.2-2,2.2-0.4,2.5c18.1,3.3,91.1,22.9,81.7-17.7c-3.8-16.3-17.6-30.3-28.9-41.8
	c-10.6-10.8-22-20.4-33.2-30.5C817.1,561.7,815.2,563.5,816.2,564.7z"/>
<path d="M53.6,134.2c0.7-12.2,1.4-23.3,2.1-35.3c-12.4-4.4-24.7-8.8-40.1-14.4C27.5,78.9,36.5,74,46,70.1
	c8.1-3.4,12.4-7.9,11.7-17.6c-0.8-10.7,0.4-21.5,0.9-35.5c39.9,40.9,77.6,79.4,115.3,118c-0.2,0.8-0.4,1.6-0.6,2.4
	C133.6,136.4,94,135.3,53.6,134.2z M157.7,133.8c0.2-0.8,0.4-1.7,0.6-2.5c-32.5-14.3-65-28.7-98.5-43.5c-1,15.5-1.9,29.2-2.8,43.3
	C91.4,132.1,124.5,133,157.7,133.8z M155.8,123.7c0.4-0.5,0.8-0.9,1.2-1.4c-31.3-32-62.6-64.1-95.5-97.8c-0.4,13.6-1,24.5-1,35.3
	c0,2.4,1.8,5.7,3.8,7C94.7,86,125.3,104.8,155.8,123.7z M140.1,119.9c0.3-0.5,0.6-1.1,0.9-1.6c-26.6-16.4-53.2-32.9-79.8-49.2
	c-1.4-0.9-4-1-5.5-0.3c-8.6,3.9-17,8.2-25.5,12.3c3.2,1.8,6,2.4,8.8,2.2c13.6-0.9,25.9,2.9,38.1,8.6
	C97.9,101.7,119.1,110.6,140.1,119.9z M56.7,86.9c-7.6-0.1-14-0.2-20.4-0.2c5.3,3.9,10.6,5.7,15.9,7.6c0.9,0.3,1.9,0.7,3.4,1.3
	C55.9,92.5,56.2,90.4,56.7,86.9z"/>
<path class="st1" d="M52.2,131.4c0.7-12.2,1.4-23.3,2.1-35.3C42,91.7,29.7,87.3,14.2,81.8C26,76.1,35.1,71.2,44.5,67.2
	c8.1-3.4,12.4-7.9,11.7-17.6c-0.8-10.7,0.4-21.5,0.9-35.5C97,55,134.7,93.6,172.4,132.2c-0.2,0.8-0.4,1.6-0.6,2.4
	C132.2,133.6,92.6,132.5,52.2,131.4z M156.2,131c0.2-0.8,0.4-1.7,0.6-2.5c-32.5-14.3-65-28.7-98.5-43.5c-1,15.5-1.9,29.2-2.8,43.3
	C90,129.3,123.1,130.2,156.2,131z M154.4,120.9c0.4-0.5,0.8-0.9,1.2-1.4C124.3,87.5,93,55.4,60,21.7c-0.4,13.6-1,24.5-1,35.3
	c0,2.4,1.8,5.7,3.8,7C93.3,83.2,123.8,102,154.4,120.9z M138.7,117.1c0.3-0.5,0.6-1.1,0.9-1.6C113,99,86.4,82.6,59.7,66.3
	c-1.4-0.9-4-1-5.5-0.3c-8.6,3.9-17,8.2-25.5,12.3c3.2,1.8,6,2.4,8.8,2.2c13.6-0.9,25.9,2.9,38.1,8.6
	C96.5,98.9,117.7,107.8,138.7,117.1z M55.2,84.1c-7.6-0.1-14-0.2-20.4-0.2c5.3,3.9,10.6,5.7,15.9,7.6c0.9,0.3,1.9,0.7,3.4,1.3
	C54.5,89.7,54.8,87.6,55.2,84.1z"/>
</svg>
